{
    "@dqbd/tiktoken": "^1.0.17",
    "@xenova/transformers": "^2.17.2",
    "acorn": "^8.11.3",
    "adm-zip": "^0.5.16",
    "axios": "^1.3.5",
    "body-parser": "*",
    "discord-api-types": "^0.37.54",
    "discord.js": "^14.9.0",
    "emoji-regex": "^10.4.0",
    "es-module-lexer": "^1.4.1",
    "express": "^4.21.1",
    "fluent-ffmpeg": "^2.1.2",
    "json5": "^2.2.3",
    "llama3-tokenizer-js": "^1.1.3",
    "luxon": "^3.4.3",
    "png-chunk-text": "^1.0.0",
    "png-chunks-encode": "^1.0.0",
    "png-chunks-extract": "^1.0.0",
    "request": "^2.88.2",
    "sharp": "^0.33.2",
    "wav": "^1.0.2",
    "yargs-parser": "^21.1.1"
}