{
  "beginningOfText": "<|begin_of_text|>",
  "rolePrefix": "<|start_header_id|>",
  "roleSuffix": "<|end_header_id|>\n\n",
  "stopToken": "<|eot_id|>",
  "disableRole": false,
  "roleMap": {
    "assistant": "user",
    "user": "user",
    "system": "system"
  },
  "outputRegexReplace": [
    [
      " +",
      " "
    ],
    [
      "\\n\\s*\\n+",
      "\n\n"
    ],
    [
      "\\s*\\n",
      "\n"
    ]
  ]
}
