{
  "Name": "Blanky",
  "Gender": "...",
  "Species": "human",
  "Age": "...",
  "Description": "...",
  "Likes": "...",
  "Dislikes": "...",
  "Personality Traits": "...",
  "Body Type": "...",
  "Height": "...",
  "Hair Color": "...",
  "Hairstyle": "...",
  "Eye Color": "...",
  "Skin Tone": "...",
  "Other Physical Details": "...",
  "Outfit": "...",
  "Location": "...",
  "Activity": "...",
  "Mood": "..."
}